--temp-output:p:\Учеба\SIGMA\Project\Sigma_new\src\Sigma_new\obj\Debug\net452\
--out:p:\Учеба\SIGMA\Project\Sigma_new\src\Sigma_new\bin\Debug\net452\Sigma_new.exe
--define:DEBUG
--define:TRACE
--define:NET452
--suppress-warning:CS1701
--suppress-warning:CS1702
--suppress-warning:CS1705
--platform:x64
--optimize:False
--emit-entry-point:True
--output-name:Sigma_new
--file-version:1.0.0.0
--version:1.0.0.0
--informational-version:1.0.0
--target-framework:.NETFramework,Version=v4.5.2
--reference:C:\Users\pavel\.nuget\packages\Microsoft.ApplicationInsights\2.1.0\lib\net45\Microsoft.ApplicationInsights.dll
--reference:C:\Users\pavel\.nuget\packages\Microsoft.ApplicationInsights.Agent.Intercept\1.2.1\lib\net45\Microsoft.AI.Agent.Intercept.dll
--reference:C:\Users\pavel\.nuget\packages\Microsoft.ApplicationInsights.AspNetCore\1.0.0\lib\net451\Microsoft.ApplicationInsights.AspNetCore.dll
--reference:C:\Users\pavel\.nuget\packages\Microsoft.ApplicationInsights.DependencyCollector\2.1.0\lib\net45\Microsoft.AI.DependencyCollector.dll
--reference:C:\Users\pavel\.nuget\packages\Microsoft.ApplicationInsights.PerfCounterCollector\2.1.0\lib\net45\Microsoft.AI.PerfCounterCollector.dll
--reference:C:\Users\pavel\.nuget\packages\Microsoft.ApplicationInsights.WindowsServer.TelemetryChannel\2.1.0\lib\net45\Microsoft.AI.ServerTelemetryChannel.dll
--reference:C:\Users\pavel\.nuget\packages\Microsoft.AspNet.Http.Abstractions\1.0.0-rc1-final\lib\net451\Microsoft.AspNet.Http.Abstractions.dll
--reference:C:\Users\pavel\.nuget\packages\Microsoft.AspNet.Http.Extensions\1.0.0-rc1-final\lib\net451\Microsoft.AspNet.Http.Extensions.dll
--reference:C:\Users\pavel\.nuget\packages\Microsoft.AspNet.Http.Features\1.0.0-rc1-final\lib\net451\Microsoft.AspNet.Http.Features.dll
--reference:C:\Users\pavel\.nuget\packages\Microsoft.AspNetCore.Antiforgery\1.0.1\lib\net451\Microsoft.AspNetCore.Antiforgery.dll
--reference:C:\Users\pavel\.nuget\packages\Microsoft.AspNetCore.Authorization\1.0.0\lib\net451\Microsoft.AspNetCore.Authorization.dll
--reference:C:\Users\pavel\.nuget\packages\Microsoft.AspNetCore.Cors\1.0.0\lib\net451\Microsoft.AspNetCore.Cors.dll
--reference:C:\Users\pavel\.nuget\packages\Microsoft.AspNetCore.Cryptography.Internal\1.0.0\lib\net451\Microsoft.AspNetCore.Cryptography.Internal.dll
--reference:C:\Users\pavel\.nuget\packages\Microsoft.AspNetCore.DataProtection\1.0.0\lib\net451\Microsoft.AspNetCore.DataProtection.dll
--reference:C:\Users\pavel\.nuget\packages\Microsoft.AspNetCore.DataProtection.Abstractions\1.0.0\lib\net451\Microsoft.AspNetCore.DataProtection.Abstractions.dll
--reference:C:\Users\pavel\.nuget\packages\Microsoft.AspNetCore.Diagnostics\1.0.0\lib\net451\Microsoft.AspNetCore.Diagnostics.dll
--reference:C:\Users\pavel\.nuget\packages\Microsoft.AspNetCore.Diagnostics.Abstractions\1.0.0\lib\netstandard1.0\Microsoft.AspNetCore.Diagnostics.Abstractions.dll
--reference:C:\Users\pavel\.nuget\packages\Microsoft.AspNetCore.Hosting\1.0.0\lib\net451\Microsoft.AspNetCore.Hosting.dll
--reference:C:\Users\pavel\.nuget\packages\Microsoft.AspNetCore.Hosting.Abstractions\1.0.0\lib\net451\Microsoft.AspNetCore.Hosting.Abstractions.dll
--reference:C:\Users\pavel\.nuget\packages\Microsoft.AspNetCore.Hosting.Server.Abstractions\1.0.0\lib\net451\Microsoft.AspNetCore.Hosting.Server.Abstractions.dll
--reference:C:\Users\pavel\.nuget\packages\Microsoft.AspNetCore.Html.Abstractions\1.0.0\lib\netstandard1.0\Microsoft.AspNetCore.Html.Abstractions.dll
--reference:C:\Users\pavel\.nuget\packages\Microsoft.AspNetCore.Http\1.0.0\lib\net451\Microsoft.AspNetCore.Http.dll
--reference:C:\Users\pavel\.nuget\packages\Microsoft.AspNetCore.Http.Abstractions\1.0.0\lib\net451\Microsoft.AspNetCore.Http.Abstractions.dll
--reference:C:\Users\pavel\.nuget\packages\Microsoft.AspNetCore.Http.Extensions\1.0.0\lib\net451\Microsoft.AspNetCore.Http.Extensions.dll
--reference:C:\Users\pavel\.nuget\packages\Microsoft.AspNetCore.Http.Features\1.0.0\lib\net451\Microsoft.AspNetCore.Http.Features.dll
--reference:C:\Users\pavel\.nuget\packages\Microsoft.AspNetCore.HttpOverrides\1.0.0\lib\net451\Microsoft.AspNetCore.HttpOverrides.dll
--reference:C:\Users\pavel\.nuget\packages\Microsoft.AspNetCore.JsonPatch\1.0.0\lib\netstandard1.1\Microsoft.AspNetCore.JsonPatch.dll
--reference:C:\Users\pavel\.nuget\packages\Microsoft.AspNetCore.Localization\1.0.0\lib\net451\Microsoft.AspNetCore.Localization.dll
--reference:C:\Users\pavel\.nuget\packages\Microsoft.AspNetCore.Mvc\1.0.1\lib\net451\Microsoft.AspNetCore.Mvc.dll
--reference:C:\Users\pavel\.nuget\packages\Microsoft.AspNetCore.Mvc.Abstractions\1.0.1\lib\net451\Microsoft.AspNetCore.Mvc.Abstractions.dll
--reference:C:\Users\pavel\.nuget\packages\Microsoft.AspNetCore.Mvc.ApiExplorer\1.0.1\lib\net451\Microsoft.AspNetCore.Mvc.ApiExplorer.dll
--reference:C:\Users\pavel\.nuget\packages\Microsoft.AspNetCore.Mvc.Core\1.0.1\lib\net451\Microsoft.AspNetCore.Mvc.Core.dll
--reference:C:\Users\pavel\.nuget\packages\Microsoft.AspNetCore.Mvc.Cors\1.0.1\lib\net451\Microsoft.AspNetCore.Mvc.Cors.dll
--reference:C:\Users\pavel\.nuget\packages\Microsoft.AspNetCore.Mvc.DataAnnotations\1.0.1\lib\net451\Microsoft.AspNetCore.Mvc.DataAnnotations.dll
--reference:C:\Users\pavel\.nuget\packages\Microsoft.AspNetCore.Mvc.Formatters.Json\1.0.1\lib\net451\Microsoft.AspNetCore.Mvc.Formatters.Json.dll
--reference:C:\Users\pavel\.nuget\packages\Microsoft.AspNetCore.Mvc.Localization\1.0.1\lib\net451\Microsoft.AspNetCore.Mvc.Localization.dll
--reference:C:\Users\pavel\.nuget\packages\Microsoft.AspNetCore.Mvc.Razor\1.0.1\lib\net451\Microsoft.AspNetCore.Mvc.Razor.dll
--reference:C:\Users\pavel\.nuget\packages\Microsoft.AspNetCore.Mvc.Razor.Host\1.0.1\lib\net451\Microsoft.AspNetCore.Mvc.Razor.Host.dll
--reference:C:\Users\pavel\.nuget\packages\Microsoft.AspNetCore.Mvc.TagHelpers\1.0.1\lib\net451\Microsoft.AspNetCore.Mvc.TagHelpers.dll
--reference:C:\Users\pavel\.nuget\packages\Microsoft.AspNetCore.Mvc.ViewFeatures\1.0.1\lib\net451\Microsoft.AspNetCore.Mvc.ViewFeatures.dll
--reference:C:\Users\pavel\.nuget\packages\Microsoft.AspNetCore.Razor\1.0.0\lib\net451\Microsoft.AspNetCore.Razor.dll
--reference:C:\Users\pavel\.nuget\packages\Microsoft.AspNetCore.Razor.Runtime\1.0.0\lib\net451\Microsoft.AspNetCore.Razor.Runtime.dll
--reference:C:\Users\pavel\.nuget\packages\Microsoft.AspNetCore.Razor.Tools\1.0.0-preview2-final\lib\net451\dotnet-razor-tooling.exe
--reference:C:\Users\pavel\.nuget\packages\Microsoft.AspNetCore.Routing\1.0.1\lib\net451\Microsoft.AspNetCore.Routing.dll
--reference:C:\Users\pavel\.nuget\packages\Microsoft.AspNetCore.Routing.Abstractions\1.0.1\lib\net451\Microsoft.AspNetCore.Routing.Abstractions.dll
--reference:C:\Users\pavel\.nuget\packages\Microsoft.AspNetCore.Server.IISIntegration\1.0.0\lib\net451\Microsoft.AspNetCore.Server.IISIntegration.dll
--reference:C:\Users\pavel\.nuget\packages\Microsoft.AspNetCore.Server.Kestrel\1.0.1\lib\net451\Microsoft.AspNetCore.Server.Kestrel.dll
--reference:C:\Users\pavel\.nuget\packages\Microsoft.AspNetCore.StaticFiles\1.0.0\lib\net451\Microsoft.AspNetCore.StaticFiles.dll
--reference:C:\Users\pavel\.nuget\packages\Microsoft.AspNetCore.WebUtilities\1.0.0\lib\net451\Microsoft.AspNetCore.WebUtilities.dll
--reference:C:\Users\pavel\.nuget\packages\Microsoft.CodeAnalysis.Common\1.3.0\lib\net45\Microsoft.CodeAnalysis.dll
--reference:C:\Users\pavel\.nuget\packages\Microsoft.CodeAnalysis.CSharp\1.3.0\lib\net45\Microsoft.CodeAnalysis.CSharp.dll
--reference:C:\Program Files (x86)\Reference Assemblies\Microsoft\Framework\.NETFramework\v4.5.2\Microsoft.CSharp.dll
--reference:C:\Users\pavel\.nuget\packages\Microsoft.DotNet.Cli.Utils\1.0.0-preview2-003121\lib\net451\Microsoft.DotNet.Cli.Utils.dll
--reference:C:\Users\pavel\.nuget\packages\Microsoft.DotNet.InternalAbstractions\1.0.0\lib\net451\Microsoft.DotNet.InternalAbstractions.dll
--reference:C:\Users\pavel\.nuget\packages\Microsoft.DotNet.ProjectModel\1.0.0-rc3-003121\lib\net451\Microsoft.DotNet.ProjectModel.dll
--reference:C:\Users\pavel\.nuget\packages\Microsoft.EntityFrameworkCore\1.1.0\lib\net451\Microsoft.EntityFrameworkCore.dll
--reference:C:\Users\pavel\.nuget\packages\Microsoft.EntityFrameworkCore.Relational\1.1.0\lib\net451\Microsoft.EntityFrameworkCore.Relational.dll
--reference:C:\Users\pavel\.nuget\packages\Microsoft.EntityFrameworkCore.SqlServer\1.1.0\lib\net451\Microsoft.EntityFrameworkCore.SqlServer.dll
--reference:C:\Users\pavel\.nuget\packages\Microsoft.Extensions.Caching.Abstractions\1.1.0\lib\netstandard1.0\Microsoft.Extensions.Caching.Abstractions.dll
--reference:C:\Users\pavel\.nuget\packages\Microsoft.Extensions.Caching.Memory\1.1.0\lib\net451\Microsoft.Extensions.Caching.Memory.dll
--reference:C:\Users\pavel\.nuget\packages\Microsoft.Extensions.CommandLineUtils\1.0.0\lib\net451\Microsoft.Extensions.CommandLineUtils.dll
--reference:C:\Users\pavel\.nuget\packages\Microsoft.Extensions.Configuration\1.0.0\lib\netstandard1.1\Microsoft.Extensions.Configuration.dll
--reference:C:\Users\pavel\.nuget\packages\Microsoft.Extensions.Configuration.Abstractions\1.0.0\lib\netstandard1.0\Microsoft.Extensions.Configuration.Abstractions.dll
--reference:C:\Users\pavel\.nuget\packages\Microsoft.Extensions.Configuration.Binder\1.0.0\lib\netstandard1.1\Microsoft.Extensions.Configuration.Binder.dll
--reference:C:\Users\pavel\.nuget\packages\Microsoft.Extensions.Configuration.EnvironmentVariables\1.0.0\lib\net451\Microsoft.Extensions.Configuration.EnvironmentVariables.dll
--reference:C:\Users\pavel\.nuget\packages\Microsoft.Extensions.Configuration.FileExtensions\1.0.0\lib\net451\Microsoft.Extensions.Configuration.FileExtensions.dll
--reference:C:\Users\pavel\.nuget\packages\Microsoft.Extensions.Configuration.Json\1.0.0\lib\net451\Microsoft.Extensions.Configuration.Json.dll
--reference:C:\Users\pavel\.nuget\packages\Microsoft.Extensions.DependencyInjection\1.1.0\lib\netstandard1.1\Microsoft.Extensions.DependencyInjection.dll
--reference:C:\Users\pavel\.nuget\packages\Microsoft.Extensions.DependencyInjection.Abstractions\1.1.0\lib\netstandard1.0\Microsoft.Extensions.DependencyInjection.Abstractions.dll
--reference:C:\Users\pavel\.nuget\packages\Microsoft.Extensions.DependencyModel\1.0.0\lib\net451\Microsoft.Extensions.DependencyModel.dll
--reference:C:\Users\pavel\.nuget\packages\Microsoft.Extensions.DiagnosticAdapter\1.0.0\lib\netstandard1.1\Microsoft.Extensions.DiagnosticAdapter.dll
--reference:C:\Users\pavel\.nuget\packages\Microsoft.Extensions.FileProviders.Abstractions\1.0.0\lib\netstandard1.0\Microsoft.Extensions.FileProviders.Abstractions.dll
--reference:C:\Users\pavel\.nuget\packages\Microsoft.Extensions.FileProviders.Composite\1.0.0\lib\netstandard1.0\Microsoft.Extensions.FileProviders.Composite.dll
--reference:C:\Users\pavel\.nuget\packages\Microsoft.Extensions.FileProviders.Physical\1.0.0\lib\net451\Microsoft.Extensions.FileProviders.Physical.dll
--reference:C:\Users\pavel\.nuget\packages\Microsoft.Extensions.FileSystemGlobbing\1.0.0\lib\net451\Microsoft.Extensions.FileSystemGlobbing.dll
--reference:C:\Users\pavel\.nuget\packages\Microsoft.Extensions.Globalization.CultureInfoCache\1.0.0\lib\netstandard1.1\Microsoft.Extensions.Globalization.CultureInfoCache.dll
--reference:C:\Users\pavel\.nuget\packages\Microsoft.Extensions.Localization\1.0.0\lib\net451\Microsoft.Extensions.Localization.dll
--reference:C:\Users\pavel\.nuget\packages\Microsoft.Extensions.Localization.Abstractions\1.0.0\lib\netstandard1.0\Microsoft.Extensions.Localization.Abstractions.dll
--reference:C:\Users\pavel\.nuget\packages\Microsoft.Extensions.Logging\1.0.0\lib\netstandard1.1\Microsoft.Extensions.Logging.dll
--reference:C:\Users\pavel\.nuget\packages\Microsoft.Extensions.Logging.Abstractions\1.0.0\lib\netstandard1.1\Microsoft.Extensions.Logging.Abstractions.dll
--reference:C:\Users\pavel\.nuget\packages\Microsoft.Extensions.Logging.Console\1.0.0\lib\net451\Microsoft.Extensions.Logging.Console.dll
--reference:C:\Users\pavel\.nuget\packages\Microsoft.Extensions.Logging.Debug\1.0.0\lib\net451\Microsoft.Extensions.Logging.Debug.dll
--reference:C:\Users\pavel\.nuget\packages\Microsoft.Extensions.ObjectPool\1.0.0\lib\net451\Microsoft.Extensions.ObjectPool.dll
--reference:C:\Users\pavel\.nuget\packages\Microsoft.Extensions.Options\1.1.0\lib\netstandard1.0\Microsoft.Extensions.Options.dll
--reference:C:\Users\pavel\.nuget\packages\Microsoft.Extensions.Options.ConfigurationExtensions\1.0.0\lib\netstandard1.1\Microsoft.Extensions.Options.ConfigurationExtensions.dll
--reference:C:\Users\pavel\.nuget\packages\Microsoft.Extensions.PlatformAbstractions\1.0.0\lib\net451\Microsoft.Extensions.PlatformAbstractions.dll
--reference:C:\Users\pavel\.nuget\packages\Microsoft.Extensions.Primitives\1.1.0\lib\netstandard1.0\Microsoft.Extensions.Primitives.dll
--reference:C:\Users\pavel\.nuget\packages\Microsoft.Extensions.WebEncoders\1.0.0\lib\netstandard1.0\Microsoft.Extensions.WebEncoders.dll
--reference:C:\Users\pavel\.nuget\packages\Microsoft.Extensions.WebEncoders.Core\1.0.0-rc1-final\lib\net451\Microsoft.Extensions.WebEncoders.Core.dll
--reference:C:\Users\pavel\.nuget\packages\Microsoft.Net.Http.Headers\1.0.0\lib\netstandard1.1\Microsoft.Net.Http.Headers.dll
--reference:C:\Users\pavel\.nuget\packages\Microsoft.Office.Interop.Excel\15.0.4795.1000\lib\net20\Microsoft.Office.Interop.Excel.dll
--reference:C:\Users\pavel\.nuget\packages\Microsoft.VisualStudio.Web.BrowserLink.Loader\14.0.0\lib\net451\Microsoft.VisualStudio.Web.BrowserLink.Loader.dll
--reference:C:\Users\pavel\.nuget\packages\Newtonsoft.Json\9.0.1\lib\net45\Newtonsoft.Json.dll
--reference:C:\Users\pavel\.nuget\packages\NuGet.Common\3.5.0-beta2-1484\lib\net45\NuGet.Common.dll
--reference:C:\Users\pavel\.nuget\packages\NuGet.Configuration\3.5.0-beta2-1484\lib\net45\NuGet.Configuration.dll
--reference:C:\Users\pavel\.nuget\packages\NuGet.DependencyResolver.Core\3.5.0-beta2-1484\lib\net45\NuGet.DependencyResolver.Core.dll
--reference:C:\Users\pavel\.nuget\packages\NuGet.Frameworks\3.5.0-beta2-1484\lib\net45\NuGet.Frameworks.dll
--reference:C:\Users\pavel\.nuget\packages\NuGet.LibraryModel\3.5.0-beta2-1484\lib\net45\NuGet.LibraryModel.dll
--reference:C:\Users\pavel\.nuget\packages\NuGet.Packaging\3.5.0-beta2-1484\lib\net45\NuGet.Packaging.dll
--reference:C:\Users\pavel\.nuget\packages\NuGet.Packaging.Core\3.5.0-beta2-1484\lib\net45\NuGet.Packaging.Core.dll
--reference:C:\Users\pavel\.nuget\packages\NuGet.Packaging.Core.Types\3.5.0-beta2-1484\lib\net45\NuGet.Packaging.Core.Types.dll
--reference:C:\Users\pavel\.nuget\packages\NuGet.ProjectModel\3.5.0-beta2-1484\lib\net45\NuGet.ProjectModel.dll
--reference:C:\Users\pavel\.nuget\packages\NuGet.Protocol.Core.Types\3.5.0-beta2-1484\lib\net45\NuGet.Protocol.Core.Types.dll
--reference:C:\Users\pavel\.nuget\packages\NuGet.Protocol.Core.v3\3.5.0-beta2-1484\lib\net45\NuGet.Protocol.Core.v3.dll
--reference:C:\Users\pavel\.nuget\packages\NuGet.Repositories\3.5.0-beta2-1484\lib\net45\NuGet.Repositories.dll
--reference:C:\Users\pavel\.nuget\packages\NuGet.RuntimeModel\3.5.0-beta2-1484\lib\net45\NuGet.RuntimeModel.dll
--reference:C:\Users\pavel\.nuget\packages\NuGet.Versioning\3.5.0-beta2-1484\lib\net45\NuGet.Versioning.dll
--reference:C:\Users\pavel\.nuget\packages\Remotion.Linq\2.1.1\lib\net45\Remotion.Linq.dll
--reference:C:\Users\pavel\.nuget\packages\RestSharp\105.2.3\lib\net452\RestSharp.dll
--reference:C:\Users\pavel\.nuget\packages\System.Buffers\4.0.0\lib\netstandard1.1\System.Buffers.dll
--reference:C:\Program Files (x86)\Reference Assemblies\Microsoft\Framework\.NETFramework\v4.5.2\Facades\System.Collections.dll
--reference:C:\Program Files (x86)\Reference Assemblies\Microsoft\Framework\.NETFramework\v4.5.2\Facades\System.Collections.Concurrent.dll
--reference:C:\Users\pavel\.nuget\packages\System.Collections.Immutable\1.3.0\lib\portable-net45+win8+wp8+wpa81\System.Collections.Immutable.dll
--reference:C:\Program Files (x86)\Reference Assemblies\Microsoft\Framework\.NETFramework\v4.5.2\Facades\System.ComponentModel.dll
--reference:C:\Users\pavel\.nuget\packages\System.ComponentModel.Primitives\4.1.0\ref\net45\System.ComponentModel.Primitives.dll
--reference:C:\Users\pavel\.nuget\packages\System.ComponentModel.TypeConverter\4.1.0\ref\net45\System.ComponentModel.TypeConverter.dll
--reference:C:\Program Files (x86)\Reference Assemblies\Microsoft\Framework\.NETFramework\v4.5.2\Facades\System.Diagnostics.Contracts.dll
--reference:C:\Program Files (x86)\Reference Assemblies\Microsoft\Framework\.NETFramework\v4.5.2\Facades\System.Diagnostics.Debug.dll
--reference:C:\Users\pavel\.nuget\packages\System.Diagnostics.DiagnosticSource\4.3.0\lib\portable-net45+win8+wpa81\System.Diagnostics.DiagnosticSource.dll
--reference:C:\Program Files (x86)\Reference Assemblies\Microsoft\Framework\.NETFramework\v4.5.2\Facades\System.Diagnostics.Tools.dll
--reference:C:\Program Files (x86)\Reference Assemblies\Microsoft\Framework\.NETFramework\v4.5.2\Facades\System.Diagnostics.Tracing.dll
--reference:C:\Program Files (x86)\Reference Assemblies\Microsoft\Framework\.NETFramework\v4.5.2\Facades\System.Globalization.dll
--reference:C:\Users\pavel\.nuget\packages\System.Interactive.Async\3.0.0\lib\net45\System.Interactive.Async.dll
--reference:C:\Program Files (x86)\Reference Assemblies\Microsoft\Framework\.NETFramework\v4.5.2\Facades\System.IO.dll
--reference:C:\Program Files (x86)\Reference Assemblies\Microsoft\Framework\.NETFramework\v4.5.2\System.IO.Compression.dll
--reference:C:\Program Files (x86)\Reference Assemblies\Microsoft\Framework\.NETFramework\v4.5.2\Facades\System.Linq.dll
--reference:C:\Program Files (x86)\Reference Assemblies\Microsoft\Framework\.NETFramework\v4.5.2\Facades\System.Linq.Expressions.dll
--reference:C:\Program Files (x86)\Reference Assemblies\Microsoft\Framework\.NETFramework\v4.5.2\Facades\System.Linq.Queryable.dll
--reference:C:\Program Files (x86)\Reference Assemblies\Microsoft\Framework\.NETFramework\v4.5.2\System.Net.Http.dll
--reference:C:\Program Files (x86)\Reference Assemblies\Microsoft\Framework\.NETFramework\v4.5.2\Facades\System.Net.Primitives.dll
--reference:C:\Users\pavel\.nuget\packages\System.Numerics.Vectors\4.1.1\ref\netstandard1.0\System.Numerics.Vectors.dll
--reference:C:\Program Files (x86)\Reference Assemblies\Microsoft\Framework\.NETFramework\v4.5.2\Facades\System.ObjectModel.dll
--reference:C:\Program Files (x86)\Reference Assemblies\Microsoft\Framework\.NETFramework\v4.5.2\Facades\System.Reflection.dll
--reference:C:\Program Files (x86)\Reference Assemblies\Microsoft\Framework\.NETFramework\v4.5.2\Facades\System.Reflection.Emit.dll
--reference:C:\Program Files (x86)\Reference Assemblies\Microsoft\Framework\.NETFramework\v4.5.2\Facades\System.Reflection.Emit.Lightweight.dll
--reference:C:\Program Files (x86)\Reference Assemblies\Microsoft\Framework\.NETFramework\v4.5.2\Facades\System.Reflection.Extensions.dll
--reference:C:\Users\pavel\.nuget\packages\System.Reflection.Metadata\1.3.0\lib\portable-net45+win8\System.Reflection.Metadata.dll
--reference:C:\Program Files (x86)\Reference Assemblies\Microsoft\Framework\.NETFramework\v4.5.2\Facades\System.Reflection.Primitives.dll
--reference:C:\Program Files (x86)\Reference Assemblies\Microsoft\Framework\.NETFramework\v4.5.2\Facades\System.Resources.ResourceManager.dll
--reference:C:\Program Files (x86)\Reference Assemblies\Microsoft\Framework\.NETFramework\v4.5.2\Facades\System.Runtime.dll
--reference:C:\Users\pavel\.nuget\packages\System.Runtime.CompilerServices.Unsafe\4.3.0\lib\netstandard1.0\System.Runtime.CompilerServices.Unsafe.dll
--reference:C:\Program Files (x86)\Reference Assemblies\Microsoft\Framework\.NETFramework\v4.5.2\Facades\System.Runtime.Extensions.dll
--reference:C:\Program Files (x86)\Reference Assemblies\Microsoft\Framework\.NETFramework\v4.5.2\Facades\System.Runtime.InteropServices.dll
--reference:C:\Users\pavel\.nuget\packages\System.Runtime.InteropServices.RuntimeInformation\4.3.0\ref\netstandard1.1\System.Runtime.InteropServices.RuntimeInformation.dll
--reference:C:\Program Files (x86)\Reference Assemblies\Microsoft\Framework\.NETFramework\v4.5.2\Facades\System.Runtime.Numerics.dll
--reference:C:\Program Files (x86)\Reference Assemblies\Microsoft\Framework\.NETFramework\v4.5.2\Facades\System.Runtime.Serialization.Primitives.dll
--reference:C:\Program Files (x86)\Reference Assemblies\Microsoft\Framework\.NETFramework\v4.5.2\Facades\System.Text.Encoding.dll
--reference:C:\Program Files (x86)\Reference Assemblies\Microsoft\Framework\.NETFramework\v4.5.2\Facades\System.Text.Encoding.Extensions.dll
--reference:C:\Users\pavel\.nuget\packages\System.Text.Encodings.Web\4.0.0\lib\netstandard1.0\System.Text.Encodings.Web.dll
--reference:C:\Program Files (x86)\Reference Assemblies\Microsoft\Framework\.NETFramework\v4.5.2\Facades\System.Text.RegularExpressions.dll
--reference:C:\Program Files (x86)\Reference Assemblies\Microsoft\Framework\.NETFramework\v4.5.2\Facades\System.Threading.dll
--reference:C:\Program Files (x86)\Reference Assemblies\Microsoft\Framework\.NETFramework\v4.5.2\Facades\System.Threading.Tasks.dll
--reference:C:\Users\pavel\.nuget\packages\System.Threading.Tasks.Extensions\4.0.0\lib\portable-net45+win8+wp8+wpa81\System.Threading.Tasks.Extensions.dll
--reference:C:\Program Files (x86)\Reference Assemblies\Microsoft\Framework\.NETFramework\v4.5.2\Facades\System.Threading.Timer.dll
--reference:C:\Users\pavel\.nuget\packages\System.Web.Mvc.Extensions\1.1.1.2\lib\net45\System.Web.Mvc.Extensions.dll
--reference:C:\Program Files (x86)\Reference Assemblies\Microsoft\Framework\.NETFramework\v4.5.2\Facades\System.Xml.ReaderWriter.dll
--reference:C:\Program Files (x86)\Reference Assemblies\Microsoft\Framework\.NETFramework\v4.5.2\Facades\System.Xml.XDocument.dll
--reference:C:\Program Files (x86)\Reference Assemblies\Microsoft\Framework\.NETFramework\v4.5.2\mscorlib.dll
--reference:C:\Program Files (x86)\Reference Assemblies\Microsoft\Framework\.NETFramework\v4.5.2\System.dll
--reference:C:\Program Files (x86)\Reference Assemblies\Microsoft\Framework\.NETFramework\v4.5.2\System.Core.dll
--reference:C:\Program Files (x86)\Reference Assemblies\Microsoft\Framework\.NETFramework\v4.5.2\System.Security.dll
--reference:C:\Program Files (x86)\Reference Assemblies\Microsoft\Framework\.NETFramework\v4.5.2\System.Xml.dll
--reference:C:\Program Files (x86)\Reference Assemblies\Microsoft\Framework\.NETFramework\v4.5.2\System.Xml.Linq.dll
--reference:C:\Program Files (x86)\Reference Assemblies\Microsoft\Framework\.NETFramework\v4.5.2\System.ComponentModel.DataAnnotations.dll
--reference:C:\Program Files (x86)\Reference Assemblies\Microsoft\Framework\.NETFramework\v4.5.2\System.Data.dll
--reference:C:\Program Files (x86)\Reference Assemblies\Microsoft\Framework\.NETFramework\v4.5.2\System.Transactions.dll
--reference:C:\Program Files (x86)\Reference Assemblies\Microsoft\Framework\.NETFramework\v4.5.2\System.IdentityModel.dll
--reference:C:\Program Files (x86)\Reference Assemblies\Microsoft\Framework\.NETFramework\v4.5.2\System.Net.Http.WebRequest.dll
--reference:C:\Program Files (x86)\Reference Assemblies\Microsoft\Framework\.NETFramework\v4.5.2\System.ServiceModel.dll
--resource:"p:\Учеба\SIGMA\Project\Sigma_new\src\Sigma_new\obj\Debug\net452\Sigma_newdotnet-compile.deps.json",Sigma_new.deps.json
p:\Учеба\SIGMA\Project\Sigma_new\src\Sigma_new\Program.cs
p:\Учеба\SIGMA\Project\Sigma_new\src\Sigma_new\Startup.cs
p:\Учеба\SIGMA\Project\Sigma_new\src\Sigma_new\Controllers\DB.cs
p:\Учеба\SIGMA\Project\Sigma_new\src\Sigma_new\Controllers\EventsController.cs
p:\Учеба\SIGMA\Project\Sigma_new\src\Sigma_new\Controllers\Olymp_infor.cs
p:\Учеба\SIGMA\Project\Sigma_new\src\Sigma_new\Controllers\ParticipantController.cs
p:\Учеба\SIGMA\Project\Sigma_new\src\Sigma_new\Controllers\postToExcell.cs
p:\Учеба\SIGMA\Project\Sigma_new\src\Sigma_new\Controllers\registrController.cs
p:\Учеба\SIGMA\Project\Sigma_new\src\Sigma_new\database\connect.cs
p:\Учеба\SIGMA\Project\Sigma_new\src\Sigma_new\Middlewares\Middleware.cs
p:\Учеба\SIGMA\Project\Sigma_new\src\Sigma_new\Models\Event.cs
p:\Учеба\SIGMA\Project\Sigma_new\src\Sigma_new\Models\Inform_olymp.cs
p:\Учеба\SIGMA\Project\Sigma_new\src\Sigma_new\Models\Participant.cs
p:\Учеба\SIGMA\Project\Sigma_new\src\Sigma_new\Models\User.cs
